{
  "images" : [
    {
      "idiom" : "universal",
      "filename" : "editor-trash-delete-recycle-bin-glyph-20.png",
      "scale" : "1x"
    },
    {
      "idiom" : "universal",
      "filename" : "editor-trash-delete-recycle-bin-glyph-40.png",
      "scale" : "2x"
    },
    {
      "idiom" : "universal",
      "filename" : "editor-trash-delete-recycle-bin-glyph-60.png",
      "scale" : "3x"
    }
  ],
  "info" : {
    "version" : 1,
    "author" : "xcode"
  }
}